Reproducible Research Bootcamp - 9 Modular, Tested Code
…
Predicate Function

A predicate function is a function that returns a single TRUE or FALSE.

verify() takes a logical expression. If the all values are TRUE for the logical expression, the code proceeds. If any value is FALSE for the logical expression, the code terminates and returns a diagnostic tibble.

library(assertr)

msleep %>%
  verify(nrow(.) == 83) |>
  verify(sleep_total < 24) |>
  verify(has_class("sleep_total", class = "numeric"))

# A tibble: 83 × 11
   name   genus vore  order conservation sleep_total sleep_rem sleep_cycle awake
   <chr>  <chr> <chr> <chr> <chr>              <dbl>     <dbl>       <dbl> <dbl>
 1 Cheet… Acin… carni Carn… lc                  12.1      NA        NA      11.9
 2 Owl m… Aotus omni  Prim… <NA>                17         1.8      NA       7  
 3 Mount… Aplo… herbi Rode… nt                  14.4       2.4      NA       9.6
 4 Great… Blar… omni  Sori… lc                  14.9       2.3       0.133   9.1
 5 Cow    Bos   herbi Arti… domesticated         4         0.7       0.667  20  
 6 Three… Brad… herbi Pilo… <NA>                14.4       2.2       0.767   9.6
 7 North… Call… carni Carn… vu                   8.7       1.4       0.383  15.3
 8 Vespe… Calo… <NA>  Rode… <NA>                 7        NA        NA      17  
 9 Dog    Canis carni Carn… domesticated        10.1       2.9       0.333  13.9
10 Roe d… Capr… herbi Arti… lc                   3        NA        NA      21  
# ℹ 73 more rows
# ℹ 2 more variables: brainwt <dbl>, bodywt <dbl>
…
verification [nrow(.) == 82] failed! (1 failure)

    verb redux_fn     predicate column index value
1 verify       NA nrow(.) == 82     NA     1    NA

Error: assertr stopped execution

assert() takes a predicate function and an arbitrary number of variables. assert() will terminate if any values violate the predicate functions. Can apply tests to multiple variables.

msleep %>%
  assert(within_bounds(0, 24), c(sleep_total, sleep_rem, sleep_cycle))

# A tibble: 83 × 11
   name   genus vore  order conservation sleep_total sleep_rem sleep_cycle awake
   <chr>  <chr> <chr> <chr> <chr>              <dbl>     <dbl>       <dbl> <dbl>
 1 Cheet… Acin… carni Carn… lc                  12.1      NA        NA      11.9
 2 Owl m… Aotus omni  Prim… <NA>                17         1.8      NA       7  
 3 Mount… Aplo… herbi Rode… nt                  14.4       2.4      NA       9.6
 4 Great… Blar… omni  Sori… lc                  14.9       2.3       0.133   9.1
 5 Cow    Bos   herbi Arti… domesticated         4         0.7       0.667  20  
 6 Three… Brad… herbi Pilo… <NA>                14.4       2.2       0.767   9.6
 7 North… Call… carni Carn… vu                   8.7       1.4       0.383  15.3
 8 Vespe… Calo… <NA>  Rode… <NA>                 7        NA        NA      17  
 9 Dog    Canis carni Carn… domesticated        10.1       2.9       0.333  13.9
10 Roe d… Capr… herbi Arti… lc                   3        NA        NA      21  
# ℹ 73 more rows
# ℹ 2 more variables: brainwt <dbl>, bodywt <dbl>

insist() is like assert(), but insist() can make assertions based on the observed data (e.g. throw an error is any value exceed four sample standard deviations from the sample mean).

msleep %>%
  insist(within_n_sds(n = 3), sleep_total)

# A tibble: 83 × 11
   name   genus vore  order conservation sleep_total sleep_rem sleep_cycle awake
   <chr>  <chr> <chr> <chr> <chr>              <dbl>     <dbl>       <dbl> <dbl>
 1 Cheet… Acin… carni Carn… lc                  12.1      NA        NA      11.9
 2 Owl m… Aotus omni  Prim… <NA>                17         1.8      NA       7  
 3 Mount… Aplo… herbi Rode… nt                  14.4       2.4      NA       9.6
 4 Great… Blar… omni  Sori… lc                  14.9       2.3       0.133   9.1
 5 Cow    Bos   herbi Arti… domesticated         4         0.7       0.667  20  
 6 Three… Brad… herbi Pilo… <NA>                14.4       2.2       0.767   9.6
 7 North… Call… carni Carn… vu                   8.7       1.4       0.383  15.3
 8 Vespe… Calo… <NA>  Rode… <NA>                 7        NA        NA      17  
 9 Dog    Canis carni Carn… domesticated        10.1       2.9       0.333  13.9
10 Roe d… Capr… herbi Arti… lc                   3        NA        NA      21  
# ℹ 73 more rows
# ℹ 2 more variables: brainwt <dbl>, bodywt <dbl>

assert_rows() extends assert() so the assertion can rely on values from multiple columns (e.g. row means within a bound or row must have a certain number of non-missing values).

msleep |>
  assert_rows(num_row_NAs, within_bounds(0, 5), everything())

# A tibble: 83 × 11
   name   genus vore  order conservation sleep_total sleep_rem sleep_cycle awake
   <chr>  <chr> <chr> <chr> <chr>              <dbl>     <dbl>       <dbl> <dbl>
 1 Cheet… Acin… carni Carn… lc                  12.1      NA        NA      11.9
 2 Owl m… Aotus omni  Prim… <NA>                17         1.8      NA       7  
 3 Mount… Aplo… herbi Rode… nt                  14.4       2.4      NA       9.6
 4 Great… Blar… omni  Sori… lc                  14.9       2.3       0.133   9.1
 5 Cow    Bos   herbi Arti… domesticated         4         0.7       0.667  20  
 6 Three… Brad… herbi Pilo… <NA>                14.4       2.2       0.767   9.6
 7 North… Call… carni Carn… vu                   8.7       1.4       0.383  15.3
 8 Vespe… Calo… <NA>  Rode… <NA>                 7        NA        NA      17  
 9 Dog    Canis carni Carn… domesticated        10.1       2.9       0.333  13.9
10 Roe d… Capr… herbi Arti… lc                   3        NA        NA      21  
# ℹ 73 more rows
# ℹ 2 more variables: brainwt <dbl>, bodywt <dbl>
…
